<svg width="84" height="84" viewBox="0 0 84 84" fill="none" xmlns="http://www.w3.org/2000/svg">
<path d="M42 82C64.0914 82 82 64.0914 82 42C82 19.9086 64.0914 2 42 2C19.9086 2 2 19.9086 2 42C2 64.0914 19.9086 82 42 82Z" stroke="#347AE2" stroke-width="4" stroke-linecap="round" stroke-linejoin="round"/>
<path d="M42 26V58" stroke="#347AE2" stroke-width="4" stroke-linecap="round" stroke-linejoin="round"/>
<path d="M26 42H58" stroke="#347AE2" stroke-width="4" stroke-linecap="round" stroke-linejoin="round"/>
</svg>
