<svg width="24" height="24" viewBox="0 0 24 24" fill="none" xmlns="http://www.w3.org/2000/svg">
<path d="M9.71289 18.2542C9.91929 16.6288 11.3228 13.3779 15.2858 13.3779C19.2487 13.3779 20.6522 16.6288 20.8586 18.2542" stroke="#990101" stroke-width="1.3" stroke-linecap="round"/>
<circle cx="15.2858" cy="8.64126" r="2.22915" stroke="#990101" stroke-width="1.3"/>
<path d="M4.14062 14.3103C4.27661 13.2394 5.20129 11.0977 7.81217 11.0977C9.7135 11.0977 10.8281 12.6384 10.8281 12.6384" stroke="#990101" stroke-width="1.2" stroke-linecap="round"/>
<circle cx="7.87874" cy="7.83577" r="1.33577" stroke="#990101"/>
</svg>
