<svg width="24" height="24" viewBox="0 0 24 24" fill="none" xmlns="http://www.w3.org/2000/svg">
<path d="M17.3333 20.666H5.66667C4.75 20.666 4 19.916 4 18.9993V7.33268C4 6.41602 4.75 5.66602 5.66667 5.66602H17.3333C18.25 5.66602 19 6.41602 19 7.33268V18.9993C19 19.916 18.25 20.666 17.3333 20.666Z" stroke="#990101" stroke-width="1.5" stroke-linecap="round" stroke-linejoin="round"/>
<path d="M14.834 4V5.66667" stroke="#990101" stroke-width="1.5" stroke-linecap="round" stroke-linejoin="round"/>
<path d="M8.16602 4V5.66667" stroke="#990101" stroke-width="1.5" stroke-linecap="round" stroke-linejoin="round"/>
<path d="M11.5 14C12.8807 14 14 12.8807 14 11.5C14 10.1193 12.8807 9 11.5 9C10.1193 9 9 10.1193 9 11.5C9 12.8807 10.1193 14 11.5 14Z" stroke="#990101" stroke-width="1.5" stroke-linecap="round" stroke-linejoin="round"/>
<path d="M15.6673 17.75C14.5007 16.9167 13.084 16.5 11.5007 16.5C9.91732 16.5 8.50065 17 7.33398 17.75" stroke="#990101" stroke-width="1.5" stroke-linecap="round" stroke-linejoin="round"/>
</svg>
