<svg width="20" height="20" viewBox="0 0 20 20" fill="none" xmlns="http://www.w3.org/2000/svg">
<path d="M13.3327 5.00033C13.3327 4.11627 12.9815 3.26842 12.3564 2.6433C11.7313 2.01818 10.8834 1.66699 9.99935 1.66699H4.99935C4.11529 1.66699 3.26745 2.01818 2.64233 2.6433C2.01721 3.26842 1.66602 4.11627 1.66602 5.00033V10.0003C1.66602 10.8844 2.01721 11.7322 2.64233 12.3573C3.26745 12.9825 4.11529 13.3337 4.99935 13.3337H6.66602V15.0003C6.66602 15.8844 7.01721 16.7322 7.64233 17.3573C8.26745 17.9825 9.11529 18.3337 9.99935 18.3337H14.9993C15.8834 18.3337 16.7313 17.9825 17.3564 17.3573C17.9815 16.7322 18.3327 15.8844 18.3327 15.0003V10.0003C18.3327 9.11627 17.9815 8.26842 17.3564 7.6433C16.7313 7.01818 15.8834 6.66699 14.9993 6.66699H13.3327V5.00033ZM11.666 6.66699H9.99935C9.11529 6.66699 8.26745 7.01818 7.64233 7.6433C7.01721 8.26842 6.66602 9.11627 6.66602 10.0003V11.667H4.99935C4.55732 11.667 4.1334 11.4914 3.82084 11.1788C3.50828 10.8663 3.33268 10.4424 3.33268 10.0003V5.00033C3.33268 4.5583 3.50828 4.13437 3.82084 3.82181C4.1334 3.50925 4.55732 3.33366 4.99935 3.33366H9.99935C10.4414 3.33366 10.8653 3.50925 11.1779 3.82181C11.4904 4.13437 11.666 4.5583 11.666 5.00033V6.66699ZM14.9993 8.33366C15.4414 8.33366 15.8653 8.50925 16.1779 8.82182C16.4904 9.13438 16.666 9.5583 16.666 10.0003V15.0003C16.666 15.4424 16.4904 15.8663 16.1779 16.1788C15.8653 16.4914 15.4414 16.667 14.9993 16.667H9.99935C9.55732 16.667 9.1334 16.4914 8.82084 16.1788C8.50828 15.8663 8.33268 15.4424 8.33268 15.0003V10.0003C8.33268 9.5583 8.50828 9.13438 8.82084 8.82182C9.1334 8.50925 9.55732 8.33366 9.99935 8.33366H14.9993Z" fill="black"/>
</svg>
