<svg width="16" height="16" viewBox="0 0 16 16" fill="none" xmlns="http://www.w3.org/2000/svg">
<path d="M1.26582 14.7342C1.66746 15.1364 2.14463 15.4553 2.66989 15.6725C3.19515 15.8897 3.75817 16.001 4.32658 16C4.89512 16.001 5.45825 15.8897 5.98366 15.6725C6.50906 15.4552 6.98637 15.1364 7.38821 14.7342L9.83681 12.2848L8.61251 11.0606L6.1639 13.5099C5.67597 13.9957 5.01551 14.2684 4.32701 14.2684C3.63852 14.2684 2.97805 13.9957 2.49013 13.5099C2.00396 13.0223 1.73096 12.3617 1.73096 11.6731C1.73096 10.9845 2.00396 10.324 2.49013 9.83634L4.9396 7.38785L3.7153 6.16361L1.26582 8.6121C0.455225 9.42462 0 10.5255 0 11.6731C0 12.8208 0.455225 13.9217 1.26582 14.7342V14.7342ZM14.7349 7.38785C15.5451 6.57511 16 5.47436 16 4.32681C16 3.17926 15.5451 2.0785 14.7349 1.26576C13.9223 0.455203 12.8214 0 11.6737 0C10.526 0 9.42507 0.455203 8.61251 1.26576L6.1639 3.71512L7.38821 4.93936L9.83681 2.49001C10.3247 2.00428 10.9852 1.73159 11.6737 1.73159C12.3622 1.73159 13.0227 2.00428 13.5106 2.49001C13.9968 2.97769 14.2698 3.63821 14.2698 4.32681C14.2698 5.01541 13.9968 5.67593 13.5106 6.16361L11.0611 8.6121L12.2854 9.83634L14.7349 7.38785Z" fill="#347AE2"/>
<path d="M4.93806 12.2853L3.71289 11.0611L11.0613 3.71387L12.2856 4.93898L4.93806 12.2853Z" fill="#347AE2"/>
</svg>
