<svg width="54" height="103" viewBox="0 0 54 103" fill="none" xmlns="http://www.w3.org/2000/svg">
<g opacity="0.6">
<path opacity="0.3" d="M0.494141 103.317L27.2903 63.4851C33.88 53.6896 45.1422 48.0896 56.9296 48.7473V48.7473C67.7479 49.351 78.1892 44.681 84.9508 36.2147L113.352 0.65332" stroke="#FFFDFD" stroke-width="1.00118"/>
<path opacity="0.3" d="M0.494141 113.432L27.2903 73.5993C33.88 63.8039 45.1422 58.2039 56.9296 58.8616V58.8616C67.7479 59.4652 78.1892 54.7953 84.9508 46.3289L113.352 10.7676" stroke="#FFFDFD" stroke-width="1.00118"/>
<path opacity="0.3" d="M0.494141 123.547L27.2903 83.7146C33.88 73.9191 45.1422 68.3191 56.9296 68.9768V68.9768C67.7479 69.5805 78.1892 64.9105 84.9508 56.4441L113.352 20.8828" stroke="#FFFDFD" stroke-width="1.00118"/>
<path opacity="0.3" d="M0.494141 133.661L27.2903 93.8288C33.88 84.0334 45.1422 78.4334 56.9296 79.0911V79.0911C67.7479 79.6947 78.1892 75.0248 84.9508 66.5584L113.352 30.9971" stroke="#FFFDFD" stroke-width="1.00118"/>
</g>
</svg>
